{
  "network": "testnet",
  "port": 4001,
  "services": [
    "bitcoind",
    "insight-api",
    "insight-ui",
    "web"
  ],
  "servicesConfig": {
    "bitcoind": {
      "spawn": {
        "datadir": "./data",
        "exec": "/home/franco/.nvm/versions/node/v5.11.1/lib/node_modules/bitcore-node/bin/bitcoind"
      }
    }
  }
}
